5
9 Add [(0,0),(1,0)]
4 Sub [(0,1),(1,1)]
48 Mul [(0,2),(0,3),(0,4),(1,2)]
2 Sub [(1,3),(1,4)]
120 Mul [(2,0),(2,1),(2,2),(2,3)]
2 Div [(3,0),(4,0)]
10 Add [(3,1),(3,2),(4,1)]
4 Sub [(4,2),(4,3)]
2 Freebie [(3,3)]
10 Add [(2,4),(3,4),(4,4)]