6
3 Div [(0,0),(0,1)]
2 Div [(0,2),(0,3)]
120 Mul [(0,4),(0,5),(1,5)]
8 Add [(1,0),(1,1),(1,2)]
2 Div [(1,3),(1,4)]
2 Div [(2,0),(2,1)]
10 Add [(2,2),(3,2),(3,3)]
10 Add [(2,3),(2,4),(3,4)]
5 Sub [(2,5),(3,5)]
2 Sub [(3,0),(4,0)]
6 Freebie [(3,1)]
120 Mul [(4,1),(5,0),(5,1)]
12 Add [(4,2),(4,3),(5,2),(5,3)]
3 Div [(4,4),(4,5)]
2 Div [(5,4),(5,5)]