9
108 Mul [(0,0),(0,1),(1,0)]
2 Sub [(0,2),(0,3)]
42 Mul [(1,1),(1,2)]
18 Mul [(1,3),(2,2),(2,3)]
7 Add [(0,4),(1,4)]
6 Freebie [(0,5)]
3 Add [(1,5),(1,6)]
4 Div [(0,6),(0,7)]
25 Add [(0,8),(1,7),(1,8)]
8 Sub [(2,0),(3,0)]
11 Add [(2,1),(3,1),(3,2)]
17 Add [(3,3),(3,4)]
6 Sub [(2,4),(2,5)]
56 Mul [(3,5),(3,6),(4,6)]
2 Sub [(2,6),(2,7)]
90 Mul [(2,8),(3,7),(3,8)]
1 Sub [(4,0),(5,0)]
36 Mul [(4,1),(5,1),(6,1)]
1 Sub [(4,2),(5,2)]
5 Sub [(4,3),(4,4)]
9 Add [(5,3),(5,4)]
2 Sub [(4,5),(5,5)]
36 Mul [(5,6),(5,7)]
126 Mul [(4,7),(4,8),(5,8)]
3 Div [(6,0),(7,0)]
14 Add [(7,1),(8,0),(8,1)]
8 Sub [(6,2),(7,2)]
17 Add [(8,2),(8,3)]
28 Mul [(6,3),(6,4)]
216 Mul [(7,3),(7,4),(7,5)]
4 Sub [(8,4),(8,5)]
5 Sub [(6,5),(6,6)]
175 Mul [(6,7),(7,6),(7,7)]
3 Div [(8,6),(8,7)]
12 Mul [(6,8),(7,8),(8,8)]