6
11 Add [(0,0),(0,1),(1,1)]
3 Sub [(0,2),(0,3)]
54 Mul [(0,4),(0,5),(1,4)]
5 Sub [(1,0),(2,0)]
8 Add [(1,2),(2,1),(2,2)]
3 Div [(1,3),(2,3)]
20 Mul [(2,4),(3,4),(3,5)]
1 Sub [(1,5),(2,5)]
60 Mul [(3,0),(4,0),(5,0)]
3 Sub [(3,1),(3,2)]
12 Add [(3,3),(4,3),(4,4)]
5 Sub [(4,1),(5,1)]
2 Sub [(4,2),(5,2)]
3 Sub [(5,3),(5,4)]
2 Div [(4,5),(5,5)]