7
140 Mul [(0,0),(1,0),(2,0)]
35 Mul [(0,1),(0,2)]
2 Div [(0,3),(0,4)]
2 Div [(0,5),(0,6)]
2 Sub [(1,1),(1,2)]
2 Div [(2,1),(2,2)]
3 Add [(1,3),(1,4)]
90 Mul [(1,5),(1,6),(2,6)]
3 Freebie [(2,5)]
2 Div [(2,3),(3,3)]
6 Sub [(2,4),(3,4)]
2 Div [(3,0),(4,0)]
2 Sub [(3,1),(4,1)]
6 Sub [(3,2),(4,2)]
12 Add [(3,5),(4,5),(4,6)]
5 Freebie [(3,6)]
105 Mul [(4,3),(5,2),(5,3)]
120 Mul [(4,4),(5,4),(6,4)]
2 Div [(5,0),(5,1)]
3 Div [(6,0),(6,1)]
7 Add [(6,2),(6,3)]
6 Sub [(5,5),(6,5)]
28 Mul [(5,6),(6,6)]