6
6 Freebie [(0,0)]
12 Mul [(0,1),(1,1)]
24 Mul [(0,2),(1,2)]
3 Div [(0,3),(1,3)]
50 Mul [(0,4),(0,5),(1,5)]
2 Div [(1,0),(2,0)]
2 Freebie [(2,1)]
2 Sub [(2,2),(2,3)]
5 Sub [(1,4),(2,4)]
3 Div [(2,5),(3,5)]
4 Sub [(3,0),(4,0)]
11 Add [(3,1),(4,1)]
3 Add [(3,2),(3,3)]
7 Add [(3,4),(4,4)]
4 Freebie [(4,5)]
3 Div [(5,0),(5,1)]
10 Mul [(4,2),(5,2)]
2 Sub [(4,3),(5,3)]
3 Div [(5,4),(5,5)]